<?xml version="1.0" encoding="UTF-8" standalone="no"?>
<svg
   xmlns:dc="http://purl.org/dc/elements/1.1/"
   xmlns:cc="http://creativecommons.org/ns#"
   xmlns:rdf="http://www.w3.org/1999/02/22-rdf-syntax-ns#"
   xmlns:svg="http://www.w3.org/2000/svg"
   xmlns="http://www.w3.org/2000/svg"
   xmlns:sodipodi="http://sodipodi.sourceforge.net/DTD/sodipodi-0.dtd"
   xmlns:inkscape="http://www.inkscape.org/namespaces/inkscape"
   version="1.1"
   id="Layer_1"
   inkscape:version="1.0.2 (e86c870879, 2021-01-15)"
   sodipodi:docname="rb-light.svg"
   x="0px"
   y="0px"
   width="402.205px"
   height="102.544px"
   viewBox="0 0 402.205 102.544"
   enable-background="new 0 0 402.205 102.544"
   xml:space="preserve"><metadata
   id="metadata80"><rdf:RDF><cc:Work
       rdf:about=""><dc:format>image/svg+xml</dc:format><dc:type
         rdf:resource="http://purl.org/dc/dcmitype/StillImage" /><dc:title /></cc:Work></rdf:RDF></metadata><defs
   id="defs78" /><sodipodi:namedview
   pagecolor="#ffffff"
   bordercolor="#666666"
   borderopacity="1"
   objecttolerance="10"
   gridtolerance="10"
   guidetolerance="10"
   inkscape:pageopacity="0"
   inkscape:pageshadow="2"
   inkscape:window-width="1916"
   inkscape:window-height="1031"
   id="namedview76"
   showgrid="false"
   inkscape:zoom="3.3440659"
   inkscape:cx="201.10249"
   inkscape:cy="51.271999"
   inkscape:window-x="0"
   inkscape:window-y="0"
   inkscape:window-maximized="1"
   inkscape:current-layer="Layer_1"
   inkscape:document-rotation="0" />
<g
   id="g73">
	<g
   id="g33">
		<g
   id="g31">
			<g
   id="g26_25_"
   transform="rotate(90,40.7,44.8)">
				<g
   id="circle2_25_">
					<circle
   fill="#1E5B96"
   cx="47.136"
   cy="-7.244"
   r="9.8"
   id="circle2" />
				</g>
				<g
   id="circle4_25_">
					<circle
   fill="#1E5B96"
   cx="47.207"
   cy="75.7"
   r="9.8"
   id="circle5" />
				</g>
				<g
   id="circle6_25_">
					<circle
   fill="#1E5B96"
   cx="88.644"
   cy="34.264"
   r="9.8"
   id="circle8" />
				</g>
				<g
   id="circle8_25_">
					<circle
   fill="#1E5B96"
   cx="5.7"
   cy="34.193"
   r="9.8"
   id="circle11" />
				</g>
				<g
   id="g12_25_">
					<g
   id="polygon10_25_">
						<polygon
   fill="#2B89D6"
   points="50.743,11.919 61.561,22.738 77.401,22.738 77.401,6.899 66.582,-3.92 66.582,11.919"
   id="polygon14" />
					</g>
				</g>
				<g
   id="g16_25_">
					<g
   id="polygon14_25_">
						<polygon
   fill="#2B89D6"
   points="9.023,53.638 19.842,64.457 35.681,64.457 35.681,48.618 24.863,37.799 24.863,53.638"
   id="polygon18" />
					</g>
				</g>
				<g
   id="g20_25_">
					<g
   id="polygon18_25_">
						<polygon
   fill="#2B89D6"
   points="66.511,72.377 77.33,61.558 77.401,45.648 61.491,45.719 50.672,56.537 66.582,56.467"
   id="polygon22" />
					</g>
				</g>
				<g
   id="g24_25_">
					<g
   id="polygon22_25_">
						<polygon
   fill="#2B89D6"
   points="24.792,30.657 35.681,19.768 35.681,3.929 19.842,3.929 8.953,14.818 24.863,14.747"
   id="polygon26" />
					</g>
				</g>
			</g>
		</g>
	</g>
	<g
   id="g71">
		<path
   fill="#1E5B96"
   d="M124.629,11.171h15.273c8.271,0,10.998,4.889,10.998,10.293c0,3.713-2.115,7.989-6.393,9.493L150.9,44.07    h-7.145L137.6,31.803h-6.627V44.07h-6.344C124.629,44.07,124.629,11.171,124.629,11.171z M139.996,25.787    c3.243,0,4.324-2.067,4.324-4.323c0-2.068-0.939-4.277-4.324-4.277h-9.023v8.601L139.996,25.787L139.996,25.787z"
   id="path35" />
		<path
   fill="#1E5B96"
   d="M153.721,32.038c0-7.755,4.371-12.548,11.232-12.548c5.922,0,10.621,3.618,10.621,11.326    c0,0.939,0,2.303-0.188,3.618h-15.65c0.234,3.103,2.584,4.841,5.217,4.841c2.209,0,3.807-0.752,5.17-2.49l3.76,3.807    c-2.021,2.443-4.936,4.042-8.93,4.042C157.997,44.634,153.721,39.934,153.721,32.038z M169.606,29.266    c-0.376-2.82-2.209-4.418-4.652-4.418c-2.867,0-4.794,1.41-5.17,4.418C159.784,29.266,169.606,29.266,169.606,29.266z"
   id="path37" />
		<path
   fill="#1E5B96"
   d="M186.619,42.33v8.366l-6.109,2.772V20.054h6.109v1.739c1.082-1.363,2.773-2.303,5.17-2.303    c5.922,0,9.916,4.464,9.916,12.595c0,7.896-4.229,12.549-9.963,12.549C189.346,44.634,187.701,43.694,186.619,42.33z     M195.596,32.085c0-4.042-1.645-6.721-4.793-6.721c-2.021,0-3.29,0.752-4.184,1.927v9.494c0.611,0.986,2.068,1.974,4.184,1.974    C193.857,38.759,195.596,36.363,195.596,32.085z"
   id="path39" />
		<path
   fill="#1E5B96"
   d="M206.877,20.054h6.109v2.115c0.705-1.504,2.068-2.679,4.465-2.679c2.021,0,3.525,0.704,4.889,1.833    l-0.848,5.592c-1.127-0.799-2.49-1.409-4.369-1.409c-2.115,0-4.137,1.033-4.137,5.169V44.07h-6.109V20.054z"
   id="path41" />
		<path
   fill="#1E5B96"
   d="M223.984,32.085c0-7.802,4.277-12.595,11.045-12.595s11.043,4.793,11.043,12.595    c0,7.896-4.275,12.549-11.043,12.549S223.984,39.981,223.984,32.085z M239.963,32.085c0-4.183-1.832-6.721-4.934-6.721    c-3.008,0-4.936,2.538-4.936,6.721s1.928,6.674,4.936,6.674C238.131,38.759,239.963,36.268,239.963,32.085z"
   id="path43" />
		<path
   fill="#1E5B96"
   d="M250.068,32.038c0-7.755,4.23-12.548,9.965-12.548c2.396,0,4.041,0.939,5.121,2.303V12.91l6.111-2.772    V44.07h-6.111v-1.74c-0.986,1.457-2.725,2.304-5.168,2.304C253.971,44.634,250.068,40.169,250.068,32.038z M265.154,36.832v-9.493    c-0.656-0.894-2.066-1.975-4.182-1.975c-3.055,0-4.793,2.35-4.793,6.674c0,4.136,1.645,6.721,4.793,6.721    C262.994,38.759,264.262,38.101,265.154,36.832z"
   id="path45" />
		<path
   fill="#1E5B96"
   d="M292.227,41.814c-1.457,1.833-3.666,2.82-6.439,2.82c-4.088,0-8.412-2.304-8.412-9.447V20.054h6.109    v13.159c0,3.854,1.316,5.546,4.184,5.546c2.914,0,4.559-1.598,4.559-5.452V20.054h6.109V44.07h-6.109v-2.256H292.227z"
   id="path47" />
		<path
   fill="#1E5B96"
   d="M303.508,32.085c0-7.802,4.324-12.595,10.949-12.595c4.889,0,8.461,2.161,10.012,7.049l-5.828,1.927    c-0.705-1.832-2.115-3.102-4.041-3.102c-2.961,0-4.889,2.679-4.889,6.721c0,4.089,1.928,6.674,4.746,6.674    c2.068,0,3.525-1.222,4.23-3.478l5.828,1.738c-1.457,5.076-4.842,7.614-10.059,7.614    C307.832,44.634,303.508,39.981,303.508,32.085z"
   id="path49" />
		<path
   fill="#1E5B96"
   d="M329.217,13.662c0-1.974,1.598-3.524,3.572-3.524c2.02,0,3.57,1.551,3.57,3.524s-1.551,3.572-3.57,3.572    C330.815,17.235,329.217,15.636,329.217,13.662z M329.734,20.054h6.109V44.07h-6.109V20.054z"
   id="path51" />
		<path
   fill="#1E5B96"
   d="M348.346,42.33v1.739h-6.111V12.911l6.111-2.772v11.655c1.08-1.363,2.725-2.303,5.121-2.303    c5.734,0,9.965,4.793,9.965,12.548c0,8.131-3.949,12.596-10.199,12.596C350.93,44.634,349.426,43.834,348.346,42.33z     M357.322,32.038c0-4.324-1.74-6.674-4.795-6.674c-2.115,0-3.525,1.034-4.182,1.975v9.493c0.893,1.269,2.16,1.927,4.182,1.927    C355.676,38.759,357.322,36.174,357.322,32.038z"
   id="path53" />
		<path
   fill="#1E5B96"
   d="M368.836,13.004l6.109-2.866V44.07h-6.109V13.004z"
   id="path55" />
		<path
   fill="#1E5B96"
   d="M380.352,32.038c0-7.755,4.371-12.548,11.232-12.548c5.922,0,10.621,3.618,10.621,11.326    c0,0.939,0,2.303-0.188,3.618h-15.65c0.234,3.103,2.584,4.841,5.217,4.841c2.209,0,3.807-0.752,5.17-2.49l3.76,3.807    c-2.021,2.443-4.936,4.042-8.93,4.042C384.629,44.634,380.352,39.934,380.352,32.038z M396.236,29.266    c-0.375-2.82-2.209-4.418-4.652-4.418c-2.867,0-4.795,1.41-5.17,4.418C386.414,29.266,396.236,29.266,396.236,29.266z"
   id="path57" />
		<path
   fill="#1E5B96"
   d="M138.517,52.869c9.297,0,12.209,5.152,12.209,10.36c0,3.584-2.129,6.608-5.769,8.176    c4.536,1.4,7.168,4.928,7.168,9.408c0,5.32-3.136,11.256-12.712,11.256h-14.784v-39.2    C124.629,52.869,138.517,52.869,138.517,52.869z M145.91,63.286c0-2.855-1.232-5.991-7.112-5.991h-9.296v12.207h8.064    C143.109,69.501,145.91,67.037,145.91,63.286z M147.31,81.15c0-3.752-1.793-7.224-9.129-7.224h-8.68v13.663h10.473    C145.742,87.589,147.31,84.286,147.31,81.15z"
   id="path59" />
		<path
   fill="#1E5B96"
   d="M178.22,89.326c-1.903,2.464-4.199,3.416-7.223,3.416c-6.721,0-10.416-3.584-10.416-12.768V63.453h4.871    v17.248c0,5.433,2.633,7.504,6.16,7.504c3.752,0,6.607-1.792,6.607-7.392v-17.36h4.873V92.07h-4.873v-2.744H178.22z"
   id="path61" />
		<path
   fill="#1E5B96"
   d="M192.164,55.222c0-1.736,1.345-3.136,3.024-3.136c1.736,0,3.08,1.399,3.08,3.136    c0,1.68-1.344,3.023-3.08,3.023C193.508,58.245,192.164,56.902,192.164,55.222z M192.781,63.453h4.871V92.07h-4.871V63.453z"
   id="path63" />
		<path
   fill="#1E5B96"
   d="M207.564,53.934l4.871-2.296V92.07h-4.871V53.934z"
   id="path65" />
		<path
   fill="#1E5B96"
   d="M220.611,77.734c0-9.408,4.705-14.952,11.816-14.952c3.359,0,5.6,1.232,7.225,2.688V53.934l4.871-2.296    V92.07h-4.871v-2.24c-1.625,1.681-3.809,2.912-7.225,2.912C225.148,92.742,220.611,86.974,220.611,77.734z M239.652,84.342v-13.44    c-1.064-1.68-3.248-3.64-6.553-3.64c-4.816,0-7.561,3.752-7.561,10.472c0,5.936,2.857,10.472,7.561,10.472    C235.787,88.205,238.195,86.806,239.652,84.342z"
   id="path67" />
		<path
   fill="#1E5B96"
   d="M252.195,87.926l3.473-2.969c1.455,1.568,3.92,3.416,7,3.416c3.023,0,5.32-1.12,5.32-3.64    c0-2.856-3.193-4.144-6.553-5.432c-5.264-1.96-8.848-4.256-8.848-8.96s4.145-7.561,9.631-7.561c4.369,0,7.561,1.849,9.633,4.313    l-3.359,2.8c-1.232-1.288-3.248-2.744-6.328-2.744c-2.912,0-4.76,1.176-4.76,3.192c0,2.407,2.855,3.472,6.047,4.76    c5.209,1.848,9.297,4.088,9.297,9.52c0,5.152-3.977,8.12-10.193,8.12C258.355,92.742,254.435,90.782,252.195,87.926z"
   id="path69" />
	</g>
</g>
<path
   style="fill:#2976c1;stroke-width:0.299037"
   d="M 180.76797,36.619178 V 20.172134 h 2.84085 2.84085 v 0.911203 0.911203 l 1.12139,-0.893215 c 4.08113,-3.250721 10.88045,-0.815264 12.9165,4.626579 1.32459,3.540292 1.32058,8.982823 -0.009,12.537088 -0.87716,2.344414 -3.37941,4.912094 -5.4846,5.627997 -2.80208,0.952895 -5.9874,0.548866 -7.55967,-0.958877 -0.36318,-0.348275 -0.72955,-0.633228 -0.81414,-0.633228 -0.0846,0 -0.19115,1.890993 -0.23679,4.202207 l -0.083,4.202206 -2.61424,1.180464 c -1.43783,0.649255 -2.68257,1.180461 -2.76609,1.180461 -0.0835,0 -0.15185,-7.401169 -0.15185,-16.447044 z m 12.32312,1.750846 c 0.28114,-0.14503 0.83984,-0.699227 1.24155,-1.231547 2.097,-2.778815 1.79992,-8.402578 -0.56497,-10.694718 -1.0086,-0.977575 -1.1902,-1.038474 -3.0966,-1.038474 -1.75747,0 -2.17033,0.110717 -3.12329,0.83757 l -1.09811,0.837571 v 4.892312 4.892313 l 0.92016,0.774262 c 0.50609,0.425845 1.27985,0.853278 1.71946,0.949851 0.43962,0.09657 0.93388,0.220174 1.09835,0.274666 0.42127,0.139575 2.29262,-0.178695 2.90345,-0.493806 z"
   id="path100" /><path
   style="fill:#2976c1;stroke-width:0.299037"
   d="m 160.99526,43.912169 c -3.31018,-1.144217 -5.81112,-4.107413 -6.67598,-7.90992 -1.5509,-6.818808 0.85597,-13.112356 5.89064,-15.402943 1.63351,-0.743191 2.22513,-0.849975 4.70908,-0.849975 2.48544,0 3.07512,0.106579 4.71336,0.851897 2.19888,1.000376 3.71214,2.550901 4.7995,4.917687 0.65408,1.423667 0.79161,2.217758 0.89963,5.194279 l 0.12752,3.513687 h -7.96134 c -4.37874,0 -7.96134,0.114486 -7.96134,0.254414 0,0.726267 0.7723,2.389464 1.46111,3.146584 1.03925,1.142305 2.38523,1.682634 4.19152,1.682634 1.8358,0 2.66331,-0.303657 3.98146,-1.461005 l 1.02845,-0.902994 1.7581,1.776634 1.75809,1.776634 -0.98124,1.012387 c -0.53968,0.556812 -1.74504,1.392393 -2.67857,1.856844 -1.46254,0.727646 -2.11098,0.856659 -4.6877,0.932649 -2.15608,0.06359 -3.37591,-0.04508 -4.37229,-0.389493 z m 8.70341,-14.993198 c -0.008,-0.811473 -1.24855,-2.791002 -2.18503,-3.485572 -1.21747,-0.902982 -4.13081,-0.875491 -5.62794,0.05311 -1.11557,0.691938 -2.05034,2.209257 -2.05034,3.328139 0,0.612136 0.12189,0.62764 4.93412,0.62764 4.50167,0 4.93368,-0.04586 4.92919,-0.523315 z"
   id="path102" /><path
   style="fill:#2976c1;stroke-width:0.299037"
   d="M 124.84802,27.498545 V 11.201019 l 7.7002,0.0059 c 4.23512,0.0033 8.60897,0.137338 9.71967,0.297957 5.37568,0.777374 8.32513,4.1332 8.40613,9.564346 0.0596,3.997239 -1.66242,7.258036 -4.75461,9.003157 l -1.61415,0.910971 2.64919,5.292191 c 1.45706,2.910705 2.85868,5.793563 3.11472,6.40635 l 0.46552,1.114155 -3.3489,-0.003 -3.34891,-0.003 -3.13989,-6.121845 -3.13989,-6.121846 -3.36417,-0.0054 -3.36417,-0.0054 v 6.130262 6.130262 h -2.99037 -2.99037 z m 17.46162,-2.098092 c 0.52549,-0.249363 1.19612,-0.86083 1.49029,-1.358814 0.68873,-1.165933 0.72504,-3.735018 0.0707,-5.000425 -0.86565,-1.673985 -1.62812,-1.859451 -7.64433,-1.859451 h -5.39752 v 4.336038 4.336039 h 5.26272 c 4.08342,0 5.47681,-0.101597 6.21816,-0.453387 z"
   id="path104" /><path
   style="fill:#2976c1;stroke-width:0.299037"
   d="m 48.951607,19.107928 c -0.87212,-0.234725 -1.867145,-0.577412 -2.211166,-0.761526 -1.265807,-0.677439 -3.305895,-2.827003 -4.07391,-4.292525 -0.681691,-1.300797 -0.790638,-1.875739 -0.79559,-4.198525 -0.0048,-2.2582335 0.112046,-2.930691 0.726187,-4.1787214 0.93509,-1.9002529 2.747446,-3.7094526 4.650744,-4.6426463 2.093228,-1.02631695 5.941386,-1.06193769 7.947083,-0.0735628 3.509369,1.7293598 5.384345,4.4658364 5.598856,8.1713769 0.07824,1.3515666 -0.01669,2.7652826 -0.231699,3.4503846 -0.978561,3.118108 -3.892985,5.821246 -7.086322,6.572586 -2.121395,0.499129 -2.5106,0.4951 -4.524183,-0.04684 z"
   id="path106" /><path
   style="fill:#2976c1;stroke-width:0.299037"
   d="M 207.08324,31.984102 V 20.172134 h 2.84085 2.84085 v 1.105067 1.105067 l 0.97187,-1.05849 c 1.76253,-1.919616 4.59188,-2.227518 7.16741,-0.779989 l 1.1983,0.673482 -0.19245,1.878465 c -0.10585,1.033155 -0.26783,2.255298 -0.35994,2.715872 l -0.16748,0.837408 -1.19001,-0.588769 c -1.4289,-0.706964 -3.92861,-0.799006 -5.16983,-0.19036 -0.48511,0.23788 -1.15795,0.903493 -1.49519,1.479139 -0.56732,0.96838 -0.62042,1.622327 -0.71025,8.746837 l -0.0971,7.700207 h -2.81852 -2.81851 z"
   id="path108" /><path
   style="fill:#2976c1;stroke-width:0.299037"
   d="m 231.10563,43.857336 c -4.07445,-1.452136 -6.51667,-5.134284 -6.88713,-10.383762 -0.44873,-6.358509 2.28766,-11.615631 6.87137,-13.2012 2.08881,-0.72255 5.8233,-0.720615 7.91904,0.0041 4.85239,1.677988 7.67688,7.699752 6.7131,14.312247 -0.6296,4.319655 -2.53585,7.275103 -5.68671,8.816677 -2.22984,1.09096 -6.52653,1.308418 -8.92967,0.451935 z m 5.15108,-5.18046 c 1.56767,-0.394744 2.9374,-1.791175 3.4036,-3.46995 0.17252,-0.62126 0.31443,-2.157089 0.31535,-3.412954 0.003,-3.99041 -1.91915,-6.538206 -4.93245,-6.538206 -1.83051,0 -3.15998,0.868158 -4.11176,2.685015 -0.7148,1.364496 -0.82149,1.907539 -0.81578,4.152228 0.01,3.797344 1.14414,5.877645 3.58187,6.568089 0.57565,0.163041 1.08797,0.308575 1.13849,0.323408 0.0505,0.01483 0.68983,-0.1236 1.42068,-0.30763 z"
   id="path110" /><path
   style="fill:#2976c1;stroke-width:0.299037"
   d="m 256.52132,43.904459 c -3.3555,-1.188986 -5.61581,-4.734758 -6.16336,-9.668518 -0.6932,-6.246197 1.50821,-11.63402 5.55079,-13.585254 2.92468,-1.411653 5.77553,-1.316949 8.11332,0.26952 0.60552,0.410912 1.15865,0.747113 1.22918,0.747113 0.0705,0 0.16548,-1.972057 0.211,-4.382349 l 0.0828,-4.382349 2.7661,-1.281321 2.76609,-1.281322 V 27.068025 43.79607 h -2.84085 c -2.83089,0 -2.84086,-0.0027 -2.84086,-0.747593 0,-0.915968 -0.3261,-0.948803 -1.07504,-0.108245 -0.31331,0.351638 -1.00268,0.822621 -1.53193,1.04663 -1.24678,0.527708 -4.67248,0.482667 -6.26719,-0.0824 z m 5.88379,-5.216705 c 0.74012,-0.170006 1.71573,-0.662876 2.16802,-1.095267 l 0.82235,-0.786166 v -4.742926 c 0,-4.722161 -0.003,-4.746077 -0.77654,-5.462605 -1.05676,-0.97937 -2.61489,-1.445012 -4.22719,-1.263282 -2.71265,0.305755 -4.05441,2.233415 -4.21919,6.061541 -0.20195,4.691902 1.26224,7.032973 4.73737,7.574507 0.0822,0.01281 0.75507,-0.115796 1.49518,-0.285802 z"
   id="path112" /><path
   style="fill:#2976c1;stroke-width:0.299037"
   d="m 282.66427,43.967492 c -1.7205,-0.613986 -2.99191,-1.734955 -3.96929,-3.499631 l -0.88945,-1.605904 -0.0905,-9.344911 -0.0905,-9.344912 h 2.83849 2.8385 l 0.0929,7.849726 c 0.0808,6.833276 0.16143,7.975207 0.6224,8.81878 0.76764,1.404774 1.78434,1.957238 3.60193,1.957238 2.11442,0 3.39973,-0.711097 4.10899,-2.27329 0.5093,-1.121787 0.56868,-2.031385 0.57457,-8.801765 l 0.007,-7.550689 h 2.99037 2.99037 V 31.984102 43.79607 h -2.99037 -2.99037 v -1.102577 -1.102577 l -0.82235,0.785911 c -1.95591,1.869233 -5.99892,2.598198 -8.82221,1.590665 z"
   id="path114" /><path
   style="fill:#2976c1;stroke-width:0.299037"
   d="m 310.99865,43.994314 c -4.63808,-1.523349 -7.32641,-5.838265 -7.32641,-11.759283 0,-4.437842 1.18952,-7.588466 3.74776,-9.926562 2.0733,-1.894878 3.96853,-2.576082 7.1671,-2.576082 4.02509,0 6.95406,1.498981 8.65044,4.427096 1.26303,2.180106 1.23647,2.228367 -1.75947,3.197078 -1.47302,0.476288 -2.69405,0.837646 -2.71341,0.803018 -1.3792,-2.466836 -3.94568,-3.580862 -5.91669,-2.568238 -2.30342,1.183409 -3.34393,3.543531 -3.13129,7.102487 0.26259,4.394984 2.53406,6.740184 5.82156,6.010518 1.1791,-0.261702 3.08586,-2.062627 3.08586,-2.914577 0,-0.2369 0.16945,-0.365702 0.37656,-0.286228 0.20711,0.07948 1.48549,0.462392 2.84085,0.850927 1.35536,0.388535 2.4643,0.82299 2.4643,0.965455 0,0.606472 -1.61211,3.41548 -2.48779,4.334829 -1.74182,1.828678 -3.57124,2.541531 -6.78237,2.64282 -1.77835,0.05609 -3.28822,-0.05733 -4.037,-0.303258 z"
   id="path116" /><path
   style="fill:#2976c1;stroke-width:0.299037"
   d="M 329.98751,31.984102 V 20.172134 h 2.84085 2.84086 V 31.984102 43.79607 h -2.84086 -2.84085 z"
   id="path118" /><path
   style="fill:#2976c1;stroke-width:0.299037"
   d="m 331.31783,16.717819 c -2.37232,-1.170803 -2.57961,-4.464884 -0.3659,-5.814582 1.78402,-1.0877168 3.97497,-0.529725 4.89336,1.246243 0.88056,1.702824 0.15418,3.639756 -1.73046,4.614342 -1.02325,0.529144 -1.6526,0.518793 -2.797,-0.046 z"
   id="path120" /><path
   style="fill:#2976c1;stroke-width:0.299037"
   d="m 350.47156,43.923882 c -0.49341,-0.256619 -1.19989,-0.750231 -1.56995,-1.096916 l -0.67283,-0.630335 v 0.799721 0.799718 h -2.99037 -2.99037 V 28.440015 13.083959 l 2.91561,-1.341057 2.91561,-1.341058 0.0812,5.80761 0.0812,5.807609 1.0363,-0.909881 c 2.83465,-2.488855 7.77451,-1.762779 10.87242,1.598064 2.12149,2.30154 3.02139,5.10826 3.02678,9.440307 0.008,6.064931 -2.14733,10.135957 -6.15982,11.637219 -2.00808,0.751322 -5.23853,0.820962 -6.54571,0.14111 z m 4.48555,-5.762366 c 0.51704,-0.291472 1.21385,-1.13708 1.64471,-1.995909 0.63221,-1.260182 0.74735,-1.905542 0.74602,-4.181505 -0.002,-3.009794 -0.67677,-4.893025 -2.13153,-5.946717 -1.11463,-0.807339 -3.1379,-0.962618 -4.71164,-0.361602 -2.28474,0.872551 -2.30162,0.923028 -2.20856,6.607255 l 0.0822,5.020028 0.78431,0.585156 c 1.58035,1.179054 3.98651,1.292539 5.7945,0.273294 z"
   id="path122" /><path
   style="fill:#2976c1;stroke-width:0.299037"
   d="M 368.86234,28.458345 V 13.120619 l 2.99037,-1.383565 2.99038,-1.383566 V 27.074779 43.79607 h -2.99038 -2.99037 z"
   id="path124" /><path
   style="fill:#2976c1;stroke-width:0.299037"
   d="m 387.50206,43.840607 c -4.12586,-1.425794 -6.577,-5.181496 -6.90201,-10.575462 -0.37368,-6.201483 1.82831,-10.640385 6.28397,-12.667606 1.62319,-0.738513 2.23336,-0.849453 4.71804,-0.857834 2.63085,-0.0089 3.00941,0.06701 4.8468,0.971554 3.81123,1.876262 5.29779,4.601746 5.53691,10.151454 l 0.14496,3.364168 h -7.98588 -7.98587 l 0.20553,0.971871 c 0.87886,4.155643 6.47639,5.564279 9.72944,2.448446 l 0.76683,-0.734476 1.68272,1.904803 1.68272,1.904803 -0.95436,0.884942 c -1.26829,1.176041 -2.15402,1.69299 -3.92324,2.289775 -1.98275,0.668812 -5.82791,0.641155 -7.84656,-0.05644 z m 8.73382,-15.220673 c -0.62589,-2.539042 -2.82392,-4.121642 -5.34016,-3.844957 -2.45984,0.270483 -3.95178,1.544282 -4.50343,3.844957 l -0.19719,0.822352 h 5.12175 5.12175 z"
   id="path126" /><path
   style="fill:#2976c1;stroke-width:0.299037"
   d="m 259.1157,92.132427 c -1.97956,-0.538903 -4.11236,-1.68561 -5.50251,-2.958452 l -1.22582,-1.122374 1.6422,-1.482831 1.6422,-1.48283 0.89961,0.867589 c 1.53375,1.479138 3.90442,2.392826 6.21713,2.396157 3.32012,0.0048 5.29831,-1.298694 5.29831,-3.491184 0,-2.262339 -1.43726,-3.580876 -5.83727,-5.355104 -5.51431,-2.223551 -7.23326,-3.357726 -8.53891,-5.634046 -0.70825,-1.234792 -0.86962,-1.867493 -0.87191,-3.418506 -0.006,-4.203361 3.04813,-7.006533 8.09536,-7.429675 3.64775,-0.305814 6.78909,0.639604 9.50322,2.860092 l 1.30386,1.066717 -1.58297,1.38833 -1.58298,1.388331 -1.29787,-0.990686 c -1.55334,-1.185693 -2.9343,-1.609079 -5.25564,-1.611318 -2.98255,-0.0029 -4.70023,1.159903 -4.70023,3.181816 0,1.85159 1.95194,3.367684 6.56823,5.101627 4.63504,1.74099 7.56876,4.064883 8.32717,6.59623 0.77227,2.577595 0.16965,5.919212 -1.38041,7.654616 -0.82816,0.927182 -2.55163,1.903115 -4.25324,2.408438 -1.87208,0.555948 -5.55035,0.588983 -7.46753,0.06706 z"
   id="path128" /><path
   style="fill:#2976c1;stroke-width:0.299037"
   d="m 229.00989,92.108667 c -3.96283,-1.239102 -7.0241,-5.190849 -7.89491,-10.191426 -0.21329,-1.22479 -0.29058,-3.412388 -0.19432,-5.49943 0.23843,-5.169137 1.49756,-8.271758 4.42507,-10.903842 3.36142,-3.022203 9.11759,-3.438046 12.84731,-0.928127 l 1.48525,0.999497 V 59.833924 54.08251 l 1.42042,-0.697307 c 0.78124,-0.383518 1.85777,-0.883122 2.3923,-1.110231 l 0.97187,-0.412924 v 20.039503 20.039503 h -2.3923 -2.39229 v -1.082123 -1.082123 l -1.08193,0.825229 c -2.40553,1.834782 -6.48602,2.476082 -9.58647,1.50663 z m 6.45527,-4.224417 c 1.09562,-0.325365 1.97954,-0.870758 2.89513,-1.786356 l 1.318,-1.317994 v -7.124072 -7.124072 l -1.12139,-1.07437 c -1.80465,-1.728976 -2.91884,-2.174243 -5.45743,-2.180962 -1.90278,-0.005 -2.45034,0.116084 -3.61192,0.798966 -2.25916,1.328137 -3.54405,3.897037 -4.0267,8.050665 -0.44175,3.801574 1.17843,8.981952 3.31998,10.615394 2.08347,1.589141 4.04949,1.925264 6.68433,1.142801 z"
   id="path130" /><path
   style="fill:#2976c1;stroke-width:0.299037"
   d="M 207.68131,73.017768 V 54.094483 l 2.24278,-1.109757 2.24278,-1.109756 v 20.033042 20.033042 h -2.24278 -2.24278 z"
   id="path132" /><path
   style="fill:#2976c1;stroke-width:0.299037"
   d="M 193.02849,77.736788 V 63.532523 h 2.24278 2.24278 v 14.204265 14.204266 h -2.24278 -2.24278 z"
   id="path134" /><path
   style="fill:#2976c1;stroke-width:0.299037"
   d="m 194.03236,57.853335 c -1.58757,-0.640664 -2.12778,-3.140856 -0.99091,-4.586147 0.82121,-1.043997 2.36195,-1.318807 3.52897,-0.629433 3.16793,1.871346 0.87105,6.591325 -2.53806,5.21558 z"
   id="path136" /><path
   style="fill:#2976c1;stroke-width:0.299037"
   d="m 167.75985,92.260907 c -2.83249,-0.68515 -5.06378,-2.781792 -6.16713,-5.794988 -0.64712,-1.767248 -0.68296,-2.329723 -0.78957,-12.392336 l -0.11169,-10.54106 h 2.23881 2.23881 l 0.10016,9.942986 c 0.0941,9.344861 0.13785,10.024529 0.72656,11.298532 1.0613,2.296713 3.13578,3.575231 5.80105,3.575231 2.57457,0 4.58517,-1.184303 5.76958,-3.398449 0.63687,-1.190571 0.66294,-1.582893 0.75256,-11.325796 l 0.0928,-10.092504 h 2.2247 2.2247 v 14.204265 14.204266 h -2.24278 -2.24278 v -1.371082 -1.371081 l -1.36226,1.199105 c -0.74924,0.659507 -1.98431,1.411061 -2.7446,1.670118 -1.42363,0.485081 -4.87766,0.587387 -6.50896,0.192793 z"
   id="path138" /><path
   style="fill:#2976c1;stroke-width:0.299037"
   d="M 124.84802,72.483648 V 53.026243 l 8.89635,0.101494 c 8.541,0.09744 8.96742,0.12985 10.67546,0.81138 3.58356,1.429894 5.78994,4.49168 6.07625,8.432016 0.25512,3.510855 -1.29742,6.464335 -4.33327,8.243464 l -1.36182,0.798079 1.49814,0.661168 c 2.07996,0.917945 3.80301,2.571316 4.76057,4.568061 0.69063,1.440131 0.8104,2.072553 0.80201,4.234774 -0.0218,5.61206 -2.97984,9.30246 -8.4993,10.603475 -1.46689,0.345767 -3.86899,0.453098 -10.21611,0.45648 l -8.29828,0.0044 z m 17.64319,14.949851 c 3.20047,-0.728759 4.85935,-2.916079 4.85935,-6.407302 0,-3.32208 -1.48095,-5.459282 -4.58085,-6.610756 -1.00526,-0.37341 -2.78684,-0.528283 -7.38063,-0.641598 l -6.05551,-0.149371 v 7.065031 7.06503 l 5.90599,-0.0073 c 3.24829,-0.004 6.51153,-0.145194 7.25165,-0.313723 z m -0.95199,-18.380195 c 0.94828,-0.281608 2.00008,-0.890366 2.71253,-1.569945 3.20717,-3.059203 1.90736,-8.752055 -2.26269,-9.910011 -0.62841,-0.174499 -3.73296,-0.31802 -6.89902,-0.318938 l -5.75647,-0.0017 v 6.130262 6.130261 h 5.3284 c 3.9244,0 5.7365,-0.121196 6.87725,-0.459962 z"
   id="path140" /><path
   style="fill:#2976c1;stroke-width:0.299037"
   d="m 90.159705,60.579114 c -1.741132,-0.572451 -3.292986,-1.597771 -4.572901,-3.021345 -4.243597,-4.719901 -2.777633,-12.161313 2.951249,-14.9809 1.244576,-0.612543 1.911264,-0.72454 4.312987,-0.72454 2.590441,0 2.982106,0.07824 4.443334,0.887586 1.816836,1.006314 3.316436,2.618687 4.298726,4.622003 0.53843,1.09811 0.66917,1.87013 0.66213,3.910081 -0.008,2.177956 -0.12622,2.768015 -0.82921,4.121974 -1.776868,3.42223 -4.516853,5.195451 -8.254625,5.342103 -1.245253,0.04886 -2.600514,-0.02177 -3.01169,-0.156962 z"
   id="path142" /><path
   style="fill:#2976c1;stroke-width:0.299037"
   d="m 48.30328,18.89061 c -1.458255,-0.49907 -2.31267,-1.039364 -3.46808,-2.193056 -2.26507,-2.261706 -2.821106,-3.615872 -2.817557,-6.8618559 0.0036,-3.2762846 0.711565,-5.0284555 2.810471,-6.9555723 2.094051,-1.92266024 3.441031,-2.43062971 6.45676,-2.43495573 2.992566,-0.004293 4.890983,0.71491003 6.72306,2.54698713 1.840233,1.8402329 2.664432,4.0043496 2.670778,7.0127138 0.0065,3.067796 -0.609521,4.494069 -2.867311,6.638999 -2.683351,2.549218 -6.197773,3.379666 -9.508121,2.24674 z"
   id="path144" /><path
   style="fill:#2976c1;stroke-width:0.299037"
   d="M 6.8373981,60.51552 C 6.3217354,60.366069 5.2496773,59.806297 4.4550464,59.271582 -1.7318083,55.108384 -1.0506859,45.901017 5.689505,42.584253 c 1.2480304,-0.61414 1.9204879,-0.731001 4.1787214,-0.726187 2.3313486,0.005 2.8956306,0.112754 4.2186966,0.805811 2.024275,1.06037 4.125312,3.433245 4.783474,5.402372 0.635707,1.901944 0.634396,4.697379 -0.003,6.453346 -0.961758,2.649446 -3.266251,4.958173 -5.863905,5.874679 -1.382344,0.487719 -4.6779983,0.552523 -6.1660679,0.121246 z"
   id="path146" /><path
   style="fill:#2976c1;stroke-width:0.299037"
   d="m 48.064348,101.86317 c -2.229813,-0.79812 -4.212561,-2.584497 -5.402967,-4.867848 -0.941111,-1.805172 -0.992199,-2.059376 -0.895565,-4.456194 0.07803,-1.935322 0.274991,-2.893076 0.825474,-4.013949 2.80803,-5.717606 10.268625,-7.186599 14.981006,-2.949764 5.018917,4.512438 4.153235,12.347956 -1.719087,15.559925 -2.410007,1.31819 -5.367401,1.59455 -7.788861,0.72783 z"
   id="path148" /><path
   style="fill:#3ab0ff;stroke-width:0.299037"
   d="m 62.947318,73.621823 v -7.852931 l 5.23315,-5.226741 5.233151,-5.226741 v 7.697002 7.697003 h 7.84661 7.84661 l -5.376438,5.382669 -5.376438,5.382669 h -7.703322 -7.703323 z"
   id="path242" /><path
   style="fill:#3ab0ff;stroke-width:0.299037"
   d="m 60.560197,34.381582 -5.221564,-5.227968 7.738329,-0.07994 7.73833,-0.07994 -0.06183,-7.924485 -0.06183,-7.924485 5.397994,5.379553 5.397994,5.379554 v 7.852841 7.852841 h -7.85293 -7.85293 z"
   id="path244" /><path
   style="fill:#3ab0ff;stroke-width:0.299037"
   d="m 21.082114,31.906227 v -7.703323 l 5.382669,-5.376438 5.382669,-5.376438 v 7.84661 7.84661 h 7.697003 7.697002 l -5.226741,5.233151 -5.226741,5.23315 h -7.852931 -7.85293 z"
   id="path246" /><path
   style="fill:#3ab0ff;stroke-width:0.299037"
   d="M 25.701259,81.254874 23.891105,81.150231 18.67709,75.929823 13.463076,70.709415 h 7.846521 7.846521 v -7.846521 -7.846521 l 5.23315,5.226741 5.233151,5.226741 v 8.002449 8.002449 l -6.055503,-0.05762 c -3.330526,-0.03169 -6.870072,-0.104708 -7.865657,-0.162261 z"
   id="path248" /></svg>
